{
  "id": "ru.ya.shura0.juickclient",
  "package_format_version": 2,
  "loc_name": "Juick client with websocket service",
  "version": "0.9.4",
  "icon": "icon.png",
  "miniicon": "icon.png",
  "vendor": "shura0@yandex.ru",
  "vendorurl": "juick.com/shura",
  "app": "ru.ya.shura0.juickclient",
  "services": ["ru.ya.shura0.juickclient.service"]
}